<?xml version="1.0" encoding="UTF-8"?>
<svg width="15px" height="49px" viewBox="0 0 15 49" version="1.1" xmlns="http://www.w3.org/2000/svg" xmlns:xlink="http://www.w3.org/1999/xlink">
    <!-- Generator: Sketch 46.2 (44496) - http://www.bohemiancoding.com/sketch -->
    <title>top-bar-line</title>
    <desc>Created with Sketch.</desc>
    <defs></defs>
    <g id="Page-1" stroke="none" stroke-width="1" fill="none" fill-rule="evenodd" stroke-opacity="0.1">
        <path d="M1,48.432588 L13.940952,0.13629669" id="top-bar-line" stroke="#000000"></path>
    </g>
</svg>